chain_seed,mode,user_id,sat_items_n,total_submissions,first_try_goal_item_n,crafted_goal_item_n,previous_unique_successful_concrete_programs_n
prolific_color_1,Direct Synthesis,0,1,49,1,1,0
prolific_color_1,Direct Synthesis,1,2,130,2,2,13
prolific_color_1,Direct Synthesis,2,1,43,1,1,31
prolific_color_1,Direct Synthesis,3,2,60,2,2,37
prolific_color_1,Direct Synthesis,4,3,92,1,3,51
prolific_color_1,Direct Synthesis,5,3,130,3,3,80
prolific_color_1,Direct Synthesis,6,3,252,3,3,96
prolific_color_1,Direct Synthesis,7,3,212,3,3,126
prolific_color_1,Direct Synthesis,8,3,94,2,3,143
prolific_color_1,Direct Synthesis,9,3,250,3,3,161
prolific_color_1,Direct Synthesis,10,3,196,3,3,183
prolific_color_1,Direct Synthesis,11,2,67,2,2,208
prolific_color_1,Natural Programming,0,2,123,1,2,0
prolific_color_1,Natural Programming,1,3,317,1,3,14
prolific_color_1,Natural Programming,2,2,178,2,2,42
prolific_color_1,Natural Programming,3,3,189,2,3,59
prolific_color_1,Natural Programming,4,3,107,2,3,79
prolific_color_1,Natural Programming,5,5,231,4,5,99
prolific_color_1,Natural Programming,6,3,93,3,3,126
prolific_color_1,Natural Programming,7,3,67,3,3,140
prolific_color_1,Natural Programming,8,4,230,3,4,155
prolific_color_1,Natural Programming,9,2,67,2,2,172
prolific_color_1,Natural Programming,10,4,164,4,4,182
prolific_color_1,Natural Programming,11,4,327,4,4,198
prolific_color_2,Direct Synthesis,0,2,83,2,3,0
prolific_color_2,Direct Synthesis,1,1,62,1,2,28
prolific_color_2,Direct Synthesis,2,3,282,3,3,39
prolific_color_2,Direct Synthesis,3,3,129,2,3,63
prolific_color_2,Direct Synthesis,4,2,83,2,2,84
prolific_color_2,Direct Synthesis,5,3,181,1,3,91
prolific_color_2,Direct Synthesis,6,3,103,1,3,112
prolific_color_2,Direct Synthesis,7,2,88,1,2,132
prolific_color_2,Direct Synthesis,8,2,42,2,2,156
prolific_color_2,Direct Synthesis,9,2,76,1,2,166
prolific_color_2,Direct Synthesis,10,3,93,2,3,173
prolific_color_2,Direct Synthesis,11,1,29,1,1,187
prolific_color_2,Natural Programming,0,2,41,1,2,0
prolific_color_2,Natural Programming,1,2,40,1,2,15
prolific_color_2,Natural Programming,2,2,48,2,2,23
prolific_color_2,Natural Programming,3,3,113,2,3,27
prolific_color_2,Natural Programming,4,3,183,1,3,41
prolific_color_2,Natural Programming,5,5,96,3,5,66
prolific_color_2,Natural Programming,6,6,111,3,6,92
prolific_color_2,Natural Programming,7,3,51,3,3,114
prolific_color_2,Natural Programming,8,3,56,3,3,121
prolific_color_2,Natural Programming,9,6,232,4,6,139
prolific_color_2,Natural Programming,10,4,264,4,4,155
prolific_color_2,Natural Programming,11,5,164,4,5,188
prolific_color_3,Direct Synthesis,0,1,28,1,1,0
prolific_color_3,Direct Synthesis,1,3,207,1,3,4
prolific_color_3,Direct Synthesis,2,3,201,3,3,25
prolific_color_3,Direct Synthesis,3,4,239,4,4,36
prolific_color_3,Direct Synthesis,4,1,30,1,2,90
prolific_color_3,Direct Synthesis,5,4,257,2,4,99
prolific_color_3,Direct Synthesis,6,2,38,1,2,127
prolific_color_3,Direct Synthesis,7,1,35,0,1,136
prolific_color_3,Direct Synthesis,8,2,53,1,3,150
prolific_color_3,Direct Synthesis,9,3,69,2,3,163
prolific_color_3,Direct Synthesis,10,3,113,2,3,181
prolific_color_3,Direct Synthesis,11,3,70,2,3,190
prolific_color_3,Natural Programming,0,1,35,1,1,0
prolific_color_3,Natural Programming,1,3,190,2,3,3
prolific_color_3,Natural Programming,2,3,155,2,3,21
prolific_color_3,Natural Programming,3,3,218,1,3,37
prolific_color_3,Natural Programming,4,3,63,3,3,60
prolific_color_3,Natural Programming,5,3,105,3,3,66
prolific_color_3,Natural Programming,6,3,90,2,3,81
prolific_color_3,Natural Programming,7,2,123,2,3,98
prolific_color_3,Natural Programming,8,6,121,5,6,107
prolific_color_3,Natural Programming,9,5,67,3,5,146
prolific_color_3,Natural Programming,10,5,60,5,5,164
prolific_color_3,Natural Programming,11,5,342,5,5,169
prolific_color_1,Direct Programming,0,1,97,0,0,0
prolific_color_1,Direct Programming,1,2,141,0,0,4
prolific_color_1,Direct Programming,2,3,278,0,0,12
prolific_color_1,Direct Programming,3,2,239,0,0,20
prolific_color_1,Direct Programming,4,2,138,0,0,20
prolific_color_1,Direct Programming,5,2,92,0,0,25
prolific_color_1,Direct Programming,6,3,212,0,0,29
prolific_color_1,Direct Programming,7,2,51,0,0,42
prolific_color_1,Direct Programming,8,1,93,0,0,47
prolific_color_1,Direct Programming,9,1,58,0,0,48
prolific_color_1,Direct Programming,10,2,111,0,0,48
prolific_color_1,Direct Programming,11,2,233,0,0,56
prolific_color_2,Direct Programming,0,2,242,0,0,0
prolific_color_2,Direct Programming,1,1,193,0,0,14
prolific_color_2,Direct Programming,2,2,190,0,0,14
prolific_color_2,Direct Programming,3,1,98,0,0,21
prolific_color_2,Direct Programming,4,2,147,0,0,26
prolific_color_2,Direct Programming,5,3,317,0,0,28
prolific_color_2,Direct Programming,6,1,77,0,0,37
prolific_color_2,Direct Programming,7,2,142,0,0,39
prolific_color_2,Direct Programming,8,2,150,0,0,46
prolific_color_2,Direct Programming,9,2,108,0,0,55
prolific_color_2,Direct Programming,10,1,120,0,0,56
prolific_color_2,Direct Programming,11,1,37,0,0,56
prolific_color_3,Direct Programming,0,1,84,0,0,0
prolific_color_3,Direct Programming,1,2,91,0,0,10
prolific_color_3,Direct Programming,2,2,380,0,0,14
prolific_color_3,Direct Programming,3,2,243,0,0,20
prolific_color_3,Direct Programming,4,2,172,0,0,29
prolific_color_3,Direct Programming,5,1,80,0,0,35
prolific_color_3,Direct Programming,6,2,259,0,0,37
prolific_color_3,Direct Programming,7,2,287,0,0,41
prolific_color_3,Direct Programming,8,1,36,0,0,51
prolific_color_3,Direct Programming,9,1,84,0,0,51
prolific_color_3,Direct Programming,10,2,174,0,0,57
prolific_color_3,Direct Programming,11,1,85,0,0,65
prolific_color_4,Direct Programming,0,2,98,0,0,0
prolific_color_4,Direct Programming,1,2,305,0,0,7
prolific_color_4,Direct Programming,2,1,76,0,0,16
prolific_color_4,Direct Programming,3,2,184,0,0,16
prolific_color_4,Direct Programming,4,2,55,0,0,21
prolific_color_4,Direct Programming,5,1,85,0,0,27
prolific_color_4,Direct Programming,6,1,152,0,0,29
prolific_color_4,Direct Programming,7,2,67,0,0,30
prolific_color_4,Direct Programming,8,2,188,0,0,34
prolific_color_4,Direct Programming,9,1,112,0,0,42
prolific_color_4,Direct Programming,10,2,305,0,0,42
prolific_color_4,Direct Programming,11,1,148,0,0,46
prolific_color_5,Direct Programming,0,1,75,0,0,0
prolific_color_5,Direct Programming,1,2,53,0,0,11
prolific_color_5,Direct Programming,2,2,157,0,0,19
prolific_color_5,Direct Programming,3,2,40,0,0,26
prolific_color_5,Direct Programming,4,2,66,0,0,32
prolific_color_5,Direct Programming,5,2,140,0,0,32
prolific_color_5,Direct Programming,6,2,57,0,0,32
prolific_color_5,Direct Programming,7,1,65,0,0,32
prolific_color_5,Direct Programming,8,1,200,0,0,34
prolific_color_5,Direct Programming,9,2,236,0,0,34
prolific_color_5,Direct Programming,10,2,163,0,0,34
prolific_color_5,Direct Programming,11,2,138,0,0,34
prolific_color_6,Direct Programming,0,3,47,0,0,0
prolific_color_6,Direct Programming,1,2,81,0,0,17
prolific_color_6,Direct Programming,2,2,82,0,0,19
prolific_color_6,Direct Programming,3,2,52,0,0,33
prolific_color_6,Direct Programming,4,1,51,0,0,35
prolific_color_6,Direct Programming,5,2,107,0,0,35
prolific_color_6,Direct Programming,6,2,91,0,0,43
prolific_color_6,Direct Programming,7,3,149,0,0,48
prolific_color_6,Direct Programming,8,2,248,0,0,55
prolific_color_6,Direct Programming,9,3,60,0,0,56
prolific_color_6,Direct Programming,10,2,215,0,0,73
prolific_color_6,Direct Programming,11,2,164,0,0,83
prolific_color_4,Direct Synthesis,0,2,30,1,2,0
prolific_color_4,Direct Synthesis,1,2,40,1,2,4
prolific_color_4,Direct Synthesis,2,2,164,1,2,13
prolific_color_4,Direct Synthesis,3,2,35,1,2,36
prolific_color_4,Direct Synthesis,4,3,185,3,3,46
prolific_color_4,Direct Synthesis,5,3,206,2,3,65
prolific_color_4,Direct Synthesis,6,2,126,1,2,84
prolific_color_4,Direct Synthesis,7,3,234,3,3,101
prolific_color_4,Direct Synthesis,8,1,38,1,1,123
prolific_color_4,Direct Synthesis,9,2,30,2,2,130
prolific_color_4,Direct Synthesis,10,3,105,2,3,132
prolific_color_4,Direct Synthesis,11,3,64,3,3,151
prolific_color_5,Direct Synthesis,0,1,69,1,1,0
prolific_color_5,Direct Synthesis,1,3,57,1,3,6
prolific_color_5,Direct Synthesis,2,1,21,1,1,24
prolific_color_5,Direct Synthesis,3,2,51,0,2,25
prolific_color_5,Direct Synthesis,4,3,165,3,3,39
prolific_color_5,Direct Synthesis,5,2,68,2,2,55
prolific_color_5,Direct Synthesis,6,3,172,3,3,61
prolific_color_5,Direct Synthesis,7,2,36,1,2,75
prolific_color_5,Direct Synthesis,8,4,108,2,4,81
prolific_color_5,Direct Synthesis,9,2,103,2,2,108
prolific_color_5,Direct Synthesis,10,4,344,4,5,116
prolific_color_5,Direct Synthesis,11,3,55,3,3,146
prolific_color_6,Direct Synthesis,0,2,101,1,2,0
prolific_color_6,Direct Synthesis,1,3,205,1,3,16
prolific_color_6,Direct Synthesis,2,2,87,2,2,39
prolific_color_6,Direct Synthesis,3,3,203,2,3,47
prolific_color_6,Direct Synthesis,4,2,260,2,2,63
prolific_color_6,Direct Synthesis,5,4,227,4,4,74
prolific_color_6,Direct Synthesis,6,2,35,1,2,98
prolific_color_6,Direct Synthesis,7,3,127,2,3,103
prolific_color_6,Direct Synthesis,8,3,86,2,3,119
prolific_color_6,Direct Synthesis,9,2,100,2,2,132
prolific_color_6,Direct Synthesis,10,3,84,2,3,141
prolific_color_6,Direct Synthesis,11,2,113,1,2,147
prolific_color_4,Natural Programming,0,4,230,3,4,0
prolific_color_4,Natural Programming,1,4,369,3,4,23
prolific_color_4,Natural Programming,2,1,29,1,1,35
prolific_color_4,Natural Programming,3,2,132,1,2,39
prolific_color_4,Natural Programming,4,2,80,2,2,48
prolific_color_4,Natural Programming,5,2,24,2,2,66
prolific_color_4,Natural Programming,6,1,97,1,1,68
prolific_color_4,Natural Programming,7,2,28,2,2,78
prolific_color_4,Natural Programming,8,4,129,4,4,84
prolific_color_4,Natural Programming,9,3,190,3,3,98
prolific_color_4,Natural Programming,10,6,252,3,6,117
prolific_color_4,Natural Programming,11,4,280,2,4,143
prolific_color_5,Natural Programming,0,3,159,1,3,0
prolific_color_5,Natural Programming,1,2,42,1,2,16
prolific_color_5,Natural Programming,2,2,33,1,2,22
prolific_color_5,Natural Programming,3,1,21,0,1,31
prolific_color_5,Natural Programming,4,3,152,3,3,34
prolific_color_5,Natural Programming,5,3,52,1,3,55
prolific_color_5,Natural Programming,6,2,37,2,2,69
prolific_color_5,Natural Programming,7,2,31,2,2,71
prolific_color_5,Natural Programming,8,2,25,2,2,73
prolific_color_5,Natural Programming,9,2,48,2,2,75
prolific_color_5,Natural Programming,10,5,304,4,5,84
prolific_color_5,Natural Programming,11,2,38,2,2,114
prolific_color_6,Natural Programming,0,2,76,1,2,0
prolific_color_6,Natural Programming,1,3,230,3,3,13
prolific_color_6,Natural Programming,2,2,45,1,2,34
prolific_color_6,Natural Programming,3,3,65,2,3,46
prolific_color_6,Natural Programming,4,4,275,4,4,62
prolific_color_6,Natural Programming,5,3,62,2,4,87
prolific_color_6,Natural Programming,6,2,108,2,2,107
prolific_color_6,Natural Programming,7,3,73,2,3,119
prolific_color_6,Natural Programming,8,3,130,3,3,126
prolific_color_6,Natural Programming,9,3,179,3,4,144
prolific_color_6,Natural Programming,10,2,23,2,2,170
prolific_color_6,Natural Programming,11,4,123,3,4,172
prolific_color_7,Direct Synthesis,0,1,69,1,1,0
prolific_color_7,Direct Synthesis,1,2,133,1,3,6
prolific_color_7,Direct Synthesis,2,3,111,2,3,29
prolific_color_7,Direct Synthesis,3,2,33,1,2,46
prolific_color_7,Direct Synthesis,4,3,54,1,3,52
prolific_color_7,Direct Synthesis,5,2,207,2,3,69
prolific_color_7,Direct Synthesis,6,2,103,2,2,83
prolific_color_7,Direct Synthesis,7,2,73,2,2,97
prolific_color_7,Direct Synthesis,8,2,33,1,2,108
prolific_color_7,Direct Synthesis,9,5,294,4,5,118
prolific_color_7,Direct Synthesis,10,2,34,2,2,148
prolific_color_7,Direct Synthesis,11,2,38,2,2,151
prolific_color_8,Direct Synthesis,0,1,21,1,1,0
prolific_color_8,Direct Synthesis,1,3,350,1,3,2
prolific_color_8,Direct Synthesis,2,2,115,3,3,37
prolific_color_8,Direct Synthesis,3,2,42,1,2,54
prolific_color_8,Direct Synthesis,4,1,33,1,1,61
prolific_color_8,Direct Synthesis,5,1,20,1,1,63
prolific_color_8,Direct Synthesis,6,2,114,1,2,70
prolific_color_8,Direct Synthesis,7,2,71,2,2,82
prolific_color_8,Direct Synthesis,8,3,160,3,3,89
prolific_color_8,Direct Synthesis,9,3,290,3,3,105
prolific_color_8,Direct Synthesis,10,3,189,2,3,120
prolific_color_8,Direct Synthesis,11,3,155,3,4,136
prolific_color_7,Natural Programming,0,3,164,1,3,0
prolific_color_7,Natural Programming,1,1,18,1,1,20
prolific_color_7,Natural Programming,2,2,64,1,2,21
prolific_color_7,Natural Programming,3,2,29,2,2,30
prolific_color_7,Natural Programming,4,3,67,3,3,32
prolific_color_7,Natural Programming,5,3,221,3,3,53
prolific_color_7,Natural Programming,6,3,315,3,3,79
prolific_color_7,Natural Programming,7,1,101,1,2,99
prolific_color_7,Natural Programming,8,3,115,3,3,112
prolific_color_7,Natural Programming,9,4,205,2,5,122
prolific_color_7,Natural Programming,10,2,25,2,2,152
prolific_color_7,Natural Programming,11,3,77,3,3,155
prolific_color_8,Natural Programming,0,1,36,1,1,0
prolific_color_8,Natural Programming,1,2,67,2,2,7
prolific_color_8,Natural Programming,2,2,201,2,2,14
prolific_color_8,Natural Programming,3,3,210,2,3,34
prolific_color_8,Natural Programming,4,2,33,2,2,57
prolific_color_8,Natural Programming,5,2,33,1,2,59
prolific_color_8,Natural Programming,6,2,26,2,2,65
prolific_color_8,Natural Programming,7,2,52,3,3,68
prolific_color_8,Natural Programming,8,2,88,2,2,82
prolific_color_8,Natural Programming,9,3,231,3,3,93
prolific_color_8,Natural Programming,10,3,307,3,3,110
prolific_color_8,Natural Programming,11,3,110,3,3,131
prolific_color_9,Direct Synthesis,0,6,356,6,6,0
prolific_color_9,Direct Synthesis,1,2,74,2,2,47
prolific_color_9,Direct Synthesis,2,2,63,2,2,61
prolific_color_9,Direct Synthesis,3,3,54,1,3,71
prolific_color_9,Direct Synthesis,4,2,205,1,2,85
prolific_color_9,Direct Synthesis,5,2,69,2,2,102
prolific_color_9,Direct Synthesis,6,3,183,3,3,110
prolific_color_9,Direct Synthesis,7,2,105,2,2,132
prolific_color_9,Direct Synthesis,8,2,45,2,2,142
prolific_color_9,Direct Synthesis,9,3,107,2,3,151
prolific_color_9,Direct Synthesis,10,2,52,2,2,164
prolific_color_9,Direct Synthesis,11,5,301,3,5,168
prolific_color_10,Direct Synthesis,0,2,132,2,2,0
prolific_color_10,Direct Synthesis,1,2,52,1,2,22
prolific_color_10,Direct Synthesis,2,2,113,1,2,29
prolific_color_10,Direct Synthesis,3,2,153,1,2,39
prolific_color_10,Direct Synthesis,4,2,77,1,2,57
prolific_color_10,Direct Synthesis,5,3,79,2,3,62
prolific_color_10,Direct Synthesis,6,2,50,2,3,76
prolific_color_10,Direct Synthesis,7,2,36,2,2,94
prolific_color_10,Direct Synthesis,8,5,297,3,5,102
prolific_color_10,Direct Synthesis,9,2,61,2,2,133
prolific_color_10,Direct Synthesis,10,2,25,2,2,137
prolific_color_10,Direct Synthesis,11,3,167,2,3,139
prolific_color_11,Direct Synthesis,0,1,35,1,1,0
prolific_color_11,Direct Synthesis,1,3,150,1,3,4
prolific_color_11,Direct Synthesis,2,3,92,1,3,20
prolific_color_11,Direct Synthesis,3,2,34,1,2,41
prolific_color_11,Direct Synthesis,4,3,190,2,3,50
prolific_color_11,Direct Synthesis,5,3,110,2,3,74
prolific_color_11,Direct Synthesis,6,2,32,2,2,87
prolific_color_11,Direct Synthesis,7,1,52,1,1,93
prolific_color_11,Direct Synthesis,8,4,97,3,4,97
prolific_color_11,Direct Synthesis,9,1,75,0,1,124
prolific_color_11,Direct Synthesis,10,2,29,1,2,138
prolific_color_11,Direct Synthesis,11,2,105,1,2,140
prolific_color_12,Direct Synthesis,0,1,17,1,1,0
prolific_color_12,Direct Synthesis,1,3,296,3,3,1
prolific_color_12,Direct Synthesis,2,1,18,1,1,21
prolific_color_12,Direct Synthesis,3,1,27,1,2,22
prolific_color_12,Direct Synthesis,4,3,94,3,3,28
prolific_color_12,Direct Synthesis,5,6,353,5,6,44
prolific_color_12,Direct Synthesis,6,4,108,4,4,75
prolific_color_12,Direct Synthesis,7,2,66,1,3,110
prolific_color_12,Direct Synthesis,8,2,163,3,3,125
prolific_color_12,Direct Synthesis,9,2,104,2,2,151
prolific_color_12,Direct Synthesis,10,2,73,1,2,158
prolific_color_12,Direct Synthesis,11,1,28,1,1,166
prolific_color_9,Natural Programming,0,3,142,2,3,0
prolific_color_9,Natural Programming,1,3,228,3,3,12
prolific_color_9,Natural Programming,2,2,36,2,2,29
prolific_color_9,Natural Programming,3,3,58,2,3,34
prolific_color_9,Natural Programming,4,2,37,2,2,47
prolific_color_9,Natural Programming,5,3,187,2,3,51
prolific_color_9,Natural Programming,6,3,166,2,3,66
prolific_color_9,Natural Programming,7,4,86,3,4,87
prolific_color_9,Natural Programming,8,4,57,3,4,100
prolific_color_9,Natural Programming,9,3,55,3,3,112
prolific_color_9,Natural Programming,10,4,135,4,4,122
prolific_color_9,Natural Programming,11,3,110,3,4,133
prolific_color_10,Natural Programming,0,1,28,1,1,0
prolific_color_10,Natural Programming,1,4,244,3,4,5
prolific_color_10,Natural Programming,2,1,22,1,1,39
prolific_color_10,Natural Programming,3,3,215,3,3,39
prolific_color_10,Natural Programming,4,3,122,3,3,68
prolific_color_10,Natural Programming,5,2,117,2,2,85
prolific_color_10,Natural Programming,6,3,160,3,3,101
prolific_color_10,Natural Programming,7,2,130,2,2,116
prolific_color_10,Natural Programming,8,3,83,2,3,129
prolific_color_10,Natural Programming,9,3,172,2,3,136
prolific_color_10,Natural Programming,10,3,65,2,3,151
prolific_color_10,Natural Programming,11,3,74,3,3,165
prolific_color_11,Natural Programming,0,4,203,3,4,0
prolific_color_11,Natural Programming,1,2,61,1,2,37
prolific_color_11,Natural Programming,2,4,257,2,4,46
prolific_color_11,Natural Programming,3,4,232,3,4,68
prolific_color_11,Natural Programming,4,4,73,3,4,98
prolific_color_11,Natural Programming,5,3,163,3,4,118
prolific_color_11,Natural Programming,6,3,50,3,3,137
prolific_color_11,Natural Programming,7,3,44,3,3,146
prolific_color_11,Natural Programming,8,4,159,3,4,152
prolific_color_11,Natural Programming,9,3,125,3,3,164
prolific_color_11,Natural Programming,10,2,54,2,2,191
prolific_color_11,Natural Programming,11,3,68,1,3,200
prolific_color_12,Natural Programming,0,2,43,1,2,0
prolific_color_12,Natural Programming,1,3,162,2,3,10
prolific_color_12,Natural Programming,2,3,117,3,3,25
prolific_color_12,Natural Programming,3,3,59,3,4,40
prolific_color_12,Natural Programming,4,2,38,2,2,58
prolific_color_12,Natural Programming,5,4,79,4,5,63
prolific_color_12,Natural Programming,6,2,27,2,2,95
prolific_color_12,Natural Programming,7,3,308,3,3,98
prolific_color_12,Natural Programming,8,3,159,2,3,131
prolific_color_12,Natural Programming,9,3,194,3,3,150
prolific_color_12,Natural Programming,10,2,93,2,2,164
prolific_color_12,Natural Programming,11,3,50,3,3,174
